…
homicide
```

    ## # A tibble: 39,403 × 14
    ##    uid   repor…¹ victi…² victi…³ victi…⁴ victi…⁵ victi…⁶ city  state   lat   lon
    ##    <chr>   <dbl> <chr>   <chr>   <chr>     <dbl> <chr>   <chr> <chr> <dbl> <dbl>
    ##  1 Alb-…  2.01e7 SATTER… VIVIANA White        15 Female  Albu… NM     35.1 -107.
    ##  2 Alb-…  2.01e7 MULA    VIVIAN  White        72 Female  Albu… NM     35.1 -107.
    ##  3 Alb-…  2.01e7 BOOK    GERALD… White        91 Female  Albu… NM     35.2 -107.
    ##  4 Alb-…  2.01e7 MARTIN… GUSTAVO White        56 Male    Albu… NM     35.1 -107.
    ##  5 Alb-…  2.01e7 GRAY    STEFAN… White        43 Female  Albu… NM     35.1 -107.
    ##  6 Alb-…  2.01e7 DAVID   LARRY   White        52 Male    Albu… NM     NA     NA 
    ##  7 Alb-…  2.01e7 BRITO   ELIZAB… White        22 Female  Albu… NM     35.1 -107.
    ##  8 Alb-…  2.01e7 KING    TEVION  Black        15 Male    Albu… NM     35.1 -107.
    ##  9 Alb-…  2.01e7 BOYKIN  CEDRIC  Black        25 Male    Albu… NM     35.1 -107.
    ## 10 Alb-…  2.01e7 BARRAG… MIGUEL  White        20 Male    Albu… NM     35.1 -107.
    ## # … with 39,393 more rows, 3 more variables: disposition <chr>,
    ## #   city_state <chr>, homicide_status <chr>, and abbreviated variable names
    ## #   ¹​reported_date, ²​victim_last, ³​victim_first, ⁴​victim_race, ⁵​victim_age,
    ## #   ⁶​victim_sex
…
    ## Rows: 4342 Columns: 20
    ## ── Column specification ────────────────────────────────────────────────────────
    ## Delimiter: ","
    ## dbl (20): babysex, bhead, blength, bwt, delwt, fincome, frace, gaweeks, malf...
    ## 
    ## ℹ Use `spec()` to retrieve the full column specification for this data.
    ## ℹ Specify the column types or set `show_col_types = FALSE` to quiet this message.

``` r
birthweight
```

    ## # A tibble: 4,342 × 20
    ##    babysex bhead blength   bwt delwt fincome frace gaweeks malform menarche
    ##      <dbl> <dbl>   <dbl> <dbl> <dbl>   <dbl> <dbl>   <dbl>   <dbl>    <dbl>
    ##  1       2    34      51  3629   177      35     1    39.9       0       13
    ##  2       1    34      48  3062   156      65     2    25.9       0       14
    ##  3       2    36      50  3345   148      85     1    39.9       0       12
    ##  4       1    34      52  3062   157      55     1    40         0       14
    ##  5       2    34      52  3374   156       5     1    41.6       0       13
    ##  6       1    33      52  3374   129      55     1    40.7       0       12
    ##  7       2    33      46  2523   126      96     2    40.3       0       14
    ##  8       2    33      49  2778   140       5     1    37.4       0       12
    ##  9       1    36      52  3515   146      85     1    40.3       0       11
    ## 10       1    33      50  3459   169      75     2    40.7       0       12
    ## # … with 4,332 more rows, and 10 more variables: mheight <dbl>, momage <dbl>,
    ## #   mrace <dbl>, parity <dbl>, pnumlbw <dbl>, pnumsga <dbl>, ppbmi <dbl>,
    ## #   ppwt <dbl>, smoken <dbl>, wtgain <dbl>
…
